Social Equity, Access and the New York School System
…
One way of understanding performance is examining the number of URM students receiving 4s for their exams, but not just any schools, why not target the highest schools? We target schools who fall 1 standard deviation above the mean (top 16% of schools) to produce a list of schools we can specifically target with NYCPASSs programs to further bolster their numbers:

school_16 <- school_16 %>%
  arrange(desc(count))
school_16

## # A tibble: 62 x 2
##    school                                             count
##    <chr>                                              <int>
##  1 SUCCESS ACADEMY CHARTER SCHOOL - HARLEM 1            212
##  2 I.S. 145 JOSEPH PULITZER                             133
##  3 I.S. 73 - THE FRANK SANSIVIERI INTERMEDIATE SCHOOL    93
##  4 M.S. 180 DR. DANIEL HALE WILLIAMS                     57
##  5 I.S. 227 LOUIS ARMSTRONG                              55
##  6 J.H.S. 383 PHILIPPA SCHUYLER                          55
##  7 P.S. 189 THE BILINGUAL CENTER                         51
##  8 I.S. 230                                              50
##  9 SCHOLARS' ACADEMY                                     50
## 10 ACHIEVEMENT FIRST BUSHWICK CHARTER SCHOOL             49
## # ... with 52 more rows
…
## # A tibble: 29 x 71
##    school DBN   district   lat  long address City    zip commSchool   eni
##    <chr>  <chr>    <int> <dbl> <dbl> <chr>   <chr> <int> <chr>      <dbl>
##  1 THE M~ 06M2~        6  40.8 -74.0 71-111~ NEW ~ 10027 No         0.724
##  2 P.S. ~ 08X3~        8  40.8 -73.8 2750 L~ BRONX 10465 No         0.388
##  3 P.S. ~ 15K1~       15  40.7 -74.0 825 4T~ BROO~ 11232 No         0.715
##  4 ROBER~ 24Q5~       24  40.7 -73.9 47-07 ~ LONG~ 11101 No         0.513
##  5 P.S. ~ 25Q1~       25  40.8 -73.8 128-02~ COLL~ 11356 No         0.454
##  6 P.S. ~ 27Q2~       27  40.7 -73.8 84-40 ~ RICH~ 11418 No         0.603
##  7 ALL C~ 32K5~       32  40.7 -73.9 321 PA~ BROO~ 11237 No         0.667
##  8 ACHIE~ 84K5~       32  40.7 -73.9 1300 G~ BROO~ 11237 No         0.718
##  9 CENTR~ 84Q0~       24  40.7 -73.9 55-30 ~ ELMH~ 11373 No         0.688
## 10 SOUTH~ 84X3~       12  40.8 -73.9 977 FO~ BRONX 10459 No         0.756
## # ... with 19 more rows, and 61 more variables: income <dbl>,
## #   pctELL <dbl>, pctAsian <dbl>, pctBlack <dbl>, pctHispanic <dbl>,
## #   pctBlackHispanic <dbl>, pctWhite <dbl>, pctAttend <dbl>,
## #   pctAbsentChronic <dbl>, pctRigor <dbl>, ratingRigor <chr>,
## #   pctCollab <dbl>, ratingCollab <chr>, pctSupp <dbl>, ratingSupp <chr>,
## #   pctLeader <dbl>, ratingLeader <chr>, pctCommunity <dbl>,
## #   ratingCommunity <chr>, pctTrust <dbl>, ratingTrust <chr>, `Student
## #   Achievement Rating` <chr>, avgELA <dbl>, avgMath <dbl>, elaAll <int>,
## #   elaAll4 <int>, elaBlack <int>, elaHispanic <int>, elaAsian <int>,
…
Recommendation 2.5

*Cluster 1 (Hi-Potential Cluster) is distinct because it has the highest number of URMs, lowest attendance rates, highest math scores for URMs, and most number of URM 4 scores. These schools represent a high diversity, high performance demographic as in many ways it replicates the performance of cluster 2, but the diversity and social needs of Cluster 3. While out of scope for this project, one recommendation for NYPASS is to find schools with similar characteristics of this school and invest their time and resources since it represents a school with high potential for increasing diversity in the SHSATs.

Now we will build a linear regression model that will predict turnout based on variables with high correlations, but first we will need to remove high correlation variables to prevent overfitting.

#Linear model to predict the SHSAT test rates for other districts
correlation = cor(scaled.school)
hc = findCorrelation(correlation, cutoff=0.75)
hc = sort(hc)
reduced_Data = num.school[,-c(hc)]
print (reduced_Data)

## # A tibble: 22 x 21
##    school   eni pctBlackHispanic pctWhite pctAbsentChronic pctRigor
##    <chr>  <dbl>            <dbl>    <dbl>            <dbl>    <dbl>
##  1 P.S. ~ 0.903             0.97     0.01             0.39     0.91
##  2 P.S. ~ 0.835             0.93     0.04             0.49     0.83
##  3 P.S. ~ 0.854             0.93     0.01             0.33     0.9 
##  4 EAGLE~ 0.747             0.98     0.01             0.47     0.92
##  5 P.S. ~ 0.875             0.95     0.01             0.35     0.89
##  6 URBAN~ 0.817             0.98     0.01             0.42     0.92
##  7 URBAN~ 0.817             0.98     0.01             0.42     0.92
##  8 KAPPA~ 0.852             0.92     0.01             0.35     0.77
##  9 COLUM~ 0.507             0.65     0.2              0.01     0.87
## 10 FREDE~ 0.708             0.94     0.02             0.22     0.89
## # ... with 12 more rows, and 15 more variables: pctCollab <dbl>,
## #   pctLeader <dbl>, avgMath <dbl>, elaAll4 <int>, mathAll <int>,
## #   mathAll4 <int>, mathHispanic <int>, quantCollab <dbl>,
## #   quantLeader <dbl>, pctELA4 <dbl>, pctELABlack <dbl>,
## #   pctELAWhite <dbl>, pctMathBlack <dbl>, URM4 <int>,
## #   commSchoolBinary <dbl>
…
